{
  "description": "Webhook holds the configuration of the webhook",
  "properties": {
    "clientConfig": {
      "$ref": "https://raw.githubusercontent.com/yannh/kubernetes-json-schema/master/v1.16.6/_definitions.json#/definitions/io.k8s.api.auditregistration.v1alpha1.WebhookClientConfig",
      "description": "ClientConfig holds the connection parameters for the webhook required"
    },
    "throttle": {
      "$ref": "https://raw.githubusercontent.com/yannh/kubernetes-json-schema/master/v1.16.6/_definitions.json#/definitions/io.k8s.api.auditregistration.v1alpha1.WebhookThrottleConfig",
      "description": "Throttle holds the options for throttling the webhook"
    }
  },
  "required": [
    "clientConfig"
  ],
  "type": "object",
  "$schema": "http://json-schema.org/schema#"
}