{
  "description": "PersistentVolumeClaimSpec describes the common attributes of storage devices and allows a Source for provider-specific attributes",
  "properties": {
    "accessModes": {
      "description": "AccessModes contains the desired access modes the volume should have. More info: https://kubernetes.io/docs/concepts/storage/persistent-volumes#access-modes-1",
      "items": {
        "type": [
          "string",
          "null"
        ]
      },
      "type": [
        "array",
        "null"
      ]
    },
    "dataSource": {
      "$ref": "https://raw.githubusercontent.com/yannh/kubernetes-json-schema/master/v1.17.2/_definitions.json#/definitions/io.k8s.api.core.v1.TypedLocalObjectReference",
      "description": "This field requires the VolumeSnapshotDataSource alpha feature gate to be enabled and currently VolumeSnapshot is the only supported data source. If the provisioner can support VolumeSnapshot data source, it will create a new volume and data will be restored to the volume at the same time. If the provisioner does not support VolumeSnapshot data source, volume will not be created and the failure will be reported as an event. In the future, we plan to support more data source types and the behavior of the provisioner may change."
    },
    "resources": {
      "$ref": "https://raw.githubusercontent.com/yannh/kubernetes-json-schema/master/v1.17.2/_definitions.json#/definitions/io.k8s.api.core.v1.ResourceRequirements",
      "description": "Resources represents the minimum resources the volume should have. More info: https://kubernetes.io/docs/concepts/storage/persistent-volumes#resources"
    },
    "selector": {
      "$ref": "https://raw.githubusercontent.com/yannh/kubernetes-json-schema/master/v1.17.2/_definitions.json#/definitions/io.k8s.apimachinery.pkg.apis.meta.v1.LabelSelector",
      "description": "A label query over volumes to consider for binding."
    },
    "storageClassName": {
      "description": "Name of the StorageClass required by the claim. More info: https://kubernetes.io/docs/concepts/storage/persistent-volumes#class-1",
      "type": [
        "string",
        "null"
      ]
    },
    "volumeMode": {
      "description": "volumeMode defines what type of volume is required by the claim. Value of Filesystem is implied when not included in claim spec. This is a beta feature.",
      "type": [
        "string",
        "null"
      ]
    },
    "volumeName": {
      "description": "VolumeName is the binding reference to the PersistentVolume backing this claim.",
      "type": [
        "string",
        "null"
      ]
    }
  },
  "type": "object",
  "$schema": "http://json-schema.org/schema#"
}