{
  "description": "HTTPIngressRuleValue is a list of http selectors pointing to backends. In the example: http://<host>/<path>?<searchpart> -> backend where where parts of the url correspond to RFC 3986, this resource will be used to match against everything after the last '/' and before the first '?' or '#'.",
  "properties": {
    "paths": {
      "description": "A collection of paths that map requests to backends.",
      "items": {
        "$ref": "https://raw.githubusercontent.com/yannh/kubernetes-json-schema/master/v1.17.10/_definitions.json#/definitions/io.k8s.api.networking.v1beta1.HTTPIngressPath"
      },
      "type": [
        "array",
        "null"
      ]
    }
  },
  "required": [
    "paths"
  ],
  "type": "object",
  "$schema": "http://json-schema.org/schema#"
}