{
  "description": "ResourceQuotaSpec defines the desired hard limits to enforce for Quota.",
  "properties": {
    "hard": {
      "additionalProperties": {
        "$ref": "https://raw.githubusercontent.com/yannh/kubernetes-json-schema/master/v1.16.9/_definitions.json#/definitions/io.k8s.apimachinery.pkg.api.resource.Quantity"
      },
      "description": "hard is the set of desired hard limits for each named resource. More info: https://kubernetes.io/docs/concepts/policy/resource-quotas/",
      "type": [
        "object",
        "null"
      ]
    },
    "scopeSelector": {
      "$ref": "https://raw.githubusercontent.com/yannh/kubernetes-json-schema/master/v1.16.9/_definitions.json#/definitions/io.k8s.api.core.v1.ScopeSelector",
      "description": "scopeSelector is also a collection of filters like scopes that must match each object tracked by a quota but expressed using ScopeSelectorOperator in combination with possible values. For a resource to match, both scopes AND scopeSelector (if specified in spec), must be matched."
    },
    "scopes": {
      "description": "A collection of filters that must match each object tracked by a quota. If not specified, the quota matches all objects.",
      "items": {
        "type": [
          "string",
          "null"
        ]
      },
      "type": [
        "array",
        "null"
      ]
    }
  },
  "type": "object",
  "$schema": "http://json-schema.org/schema#"
}