{
  "description": "JSONSchemaProps is a JSON-Schema following Specification Draft 4 (http://json-schema.org/).",
  "properties": {
    "$ref": {
      "type": [
        "string",
        "null"
      ]
    },
    "$schema": {
      "type": [
        "string",
        "null"
      ]
    },
    "additionalItems": {
      "$ref": "https://raw.githubusercontent.com/yannh/kubernetes-json-schema/master/v1.15.9/_definitions.json#/definitions/io.k8s.apiextensions-apiserver.pkg.apis.apiextensions.v1beta1.JSONSchemaPropsOrBool"
    },
    "additionalProperties": {
      "$ref": "https://raw.githubusercontent.com/yannh/kubernetes-json-schema/master/v1.15.9/_definitions.json#/definitions/io.k8s.apiextensions-apiserver.pkg.apis.apiextensions.v1beta1.JSONSchemaPropsOrBool"
    },
    "allOf": {
      "items": {
        "$ref": "https://raw.githubusercontent.com/yannh/kubernetes-json-schema/master/v1.15.9/_definitions.json#/definitions/io.k8s.apiextensions-apiserver.pkg.apis.apiextensions.v1beta1.JSONSchemaProps"
      },
      "type": [
        "array",
        "null"
      ]
    },
    "anyOf": {
      "items": {
        "$ref": "https://raw.githubusercontent.com/yannh/kubernetes-json-schema/master/v1.15.9/_definitions.json#/definitions/io.k8s.apiextensions-apiserver.pkg.apis.apiextensions.v1beta1.JSONSchemaProps"
      },
      "type": [
        "array",
        "null"
      ]
    },
    "default": {
      "$ref": "https://raw.githubusercontent.com/yannh/kubernetes-json-schema/master/v1.15.9/_definitions.json#/definitions/io.k8s.apiextensions-apiserver.pkg.apis.apiextensions.v1beta1.JSON",
      "description": "default is a default value for undefined object fields. Defaulting is an alpha feature under the CustomResourceDefaulting feature gate. Defaulting requires spec.preserveUnknownFields to be false."
    },
    "definitions": {
      "additionalProperties": {
        "$ref": "https://raw.githubusercontent.com/yannh/kubernetes-json-schema/master/v1.15.9/_definitions.json#/definitions/io.k8s.apiextensions-apiserver.pkg.apis.apiextensions.v1beta1.JSONSchemaProps"
      },
      "type": [
        "object",
        "null"
      ]
    },
    "dependencies": {
      "additionalProperties": {
        "$ref": "https://raw.githubusercontent.com/yannh/kubernetes-json-schema/master/v1.15.9/_definitions.json#/definitions/io.k8s.apiextensions-apiserver.pkg.apis.apiextensions.v1beta1.JSONSchemaPropsOrStringArray"
      },
      "type": [
        "object",
        "null"
      ]
    },
    "description": {
      "type": [
        "string",
        "null"
      ]
    },
    "enum": {
      "items": {
        "$ref": "https://raw.githubusercontent.com/yannh/kubernetes-json-schema/master/v1.15.9/_definitions.json#/definitions/io.k8s.apiextensions-apiserver.pkg.apis.apiextensions.v1beta1.JSON"
      },
      "type": [
        "array",
        "null"
      ]
    },
    "example": {
      "$ref": "https://raw.githubusercontent.com/yannh/kubernetes-json-schema/master/v1.15.9/_definitions.json#/definitions/io.k8s.apiextensions-apiserver.pkg.apis.apiextensions.v1beta1.JSON"
    },
    "exclusiveMaximum": {
      "type": [
        "boolean",
        "null"
      ]
    },
    "exclusiveMinimum": {
      "type": [
        "boolean",
        "null"
      ]
    },
    "externalDocs": {
      "$ref": "https://raw.githubusercontent.com/yannh/kubernetes-json-schema/master/v1.15.9/_definitions.json#/definitions/io.k8s.apiextensions-apiserver.pkg.apis.apiextensions.v1beta1.ExternalDocumentation"
    },
    "format": {
      "type": [
        "string",
        "null"
      ]
    },
    "id": {
      "type": [
        "string",
        "null"
      ]
    },
    "items": {
      "$ref": "https://raw.githubusercontent.com/yannh/kubernetes-json-schema/master/v1.15.9/_definitions.json#/definitions/io.k8s.apiextensions-apiserver.pkg.apis.apiextensions.v1beta1.JSONSchemaPropsOrArray"
    },
    "maxItems": {
      "format": "int64",
      "type": [
        "integer",
        "null"
      ]
    },
    "maxLength": {
      "format": "int64",
      "type": [
        "integer",
        "null"
      ]
    },
    "maxProperties": {
      "format": "int64",
      "type": [
        "integer",
        "null"
      ]
    },
    "maximum": {
      "format": "double",
      "type": [
        "number",
        "null"
      ]
    },
    "minItems": {
      "format": "int64",
      "type": [
        "integer",
        "null"
      ]
    },
    "minLength": {
      "format": "int64",
      "type": [
        "integer",
        "null"
      ]
    },
    "minProperties": {
      "format": "int64",
      "type": [
        "integer",
        "null"
      ]
    },
    "minimum": {
      "format": "double",
      "type": [
        "number",
        "null"
      ]
    },
    "multipleOf": {
      "format": "double",
      "type": [
        "number",
        "null"
      ]
    },
    "not": {
      "$ref": "https://raw.githubusercontent.com/yannh/kubernetes-json-schema/master/v1.15.9/_definitions.json#/definitions/io.k8s.apiextensions-apiserver.pkg.apis.apiextensions.v1beta1.JSONSchemaProps"
    },
    "nullable": {
      "type": [
        "boolean",
        "null"
      ]
    },
    "oneOf": {
      "items": {
        "$ref": "https://raw.githubusercontent.com/yannh/kubernetes-json-schema/master/v1.15.9/_definitions.json#/definitions/io.k8s.apiextensions-apiserver.pkg.apis.apiextensions.v1beta1.JSONSchemaProps"
      },
      "type": [
        "array",
        "null"
      ]
    },
    "pattern": {
      "type": [
        "string",
        "null"
      ]
    },
    "patternProperties": {
      "additionalProperties": {
        "$ref": "https://raw.githubusercontent.com/yannh/kubernetes-json-schema/master/v1.15.9/_definitions.json#/definitions/io.k8s.apiextensions-apiserver.pkg.apis.apiextensions.v1beta1.JSONSchemaProps"
      },
      "type": [
        "object",
        "null"
      ]
    },
    "properties": {
      "additionalProperties": {
        "$ref": "https://raw.githubusercontent.com/yannh/kubernetes-json-schema/master/v1.15.9/_definitions.json#/definitions/io.k8s.apiextensions-apiserver.pkg.apis.apiextensions.v1beta1.JSONSchemaProps"
      },
      "type": [
        "object",
        "null"
      ]
    },
    "required": {
      "items": {
        "type": "string"
      },
      "type": [
        "array",
        "null"
      ]
    },
    "title": {
      "type": [
        "string",
        "null"
      ]
    },
    "type": {
      "type": [
        "string",
        "null"
      ]
    },
    "uniqueItems": {
      "type": [
        "boolean",
        "null"
      ]
    },
    "x-kubernetes-embedded-resource": {
      "description": "x-kubernetes-embedded-resource defines that the value is an embedded Kubernetes runtime.Object, with TypeMeta and ObjectMeta. The type must be object. It is allowed to further restrict the embedded object. kind, apiVersion and metadata are validated automatically. x-kubernetes-preserve-unknown-fields is allowed to be true, but does not have to be if the object is fully specified (up to kind, apiVersion, metadata).",
      "type": [
        "boolean",
        "null"
      ]
    },
    "x-kubernetes-int-or-string": {
      "description": "x-kubernetes-int-or-string specifies that this value is either an integer or a string. If this is true, an empty type is allowed and type as child of anyOf is permitted if following one of the following patterns:\n\n1) anyOf:\n   - type: integer\n   - type: string\n2) allOf:\n   - anyOf:\n     - type: integer\n     - type: string\n   - ... zero or more",
      "type": [
        "boolean",
        "null"
      ]
    },
    "x-kubernetes-preserve-unknown-fields": {
      "description": "x-kubernetes-preserve-unknown-fields stops the API server decoding step from pruning fields which are not specified in the validation schema. This affects fields recursively, but switches back to normal pruning behaviour if nested properties or additionalProperties are specified in the schema. This can either be true or undefined. False is forbidden.",
      "type": [
        "boolean",
        "null"
      ]
    }
  },
  "type": "object",
  "$schema": "http://json-schema.org/schema#"
}