{
  "description": "Represents a source location of a volume to mount, managed by an external CSI driver",
  "properties": {
    "driver": {
      "description": "Driver is the name of the CSI driver that handles this volume. Consult with your admin for the correct name as registered in the cluster.",
      "type": [
        "string",
        "null"
      ]
    },
    "fsType": {
      "description": "Filesystem type to mount. Ex. \"ext4\", \"xfs\", \"ntfs\". If not provided, the empty value is passed to the associated CSI driver which will determine the default filesystem to apply.",
      "type": [
        "string",
        "null"
      ]
    },
    "nodePublishSecretRef": {
      "$ref": "https://raw.githubusercontent.com/yannh/kubernetes-json-schema/master/v1.17.4/_definitions.json#/definitions/io.k8s.api.core.v1.LocalObjectReference",
      "description": "NodePublishSecretRef is a reference to the secret object containing sensitive information to pass to the CSI driver to complete the CSI NodePublishVolume and NodeUnpublishVolume calls. This field is optional, and  may be empty if no secret is required. If the secret object contains more than one secret, all secret references are passed."
    },
    "readOnly": {
      "description": "Specifies a read-only configuration for the volume. Defaults to false (read/write).",
      "type": [
        "boolean",
        "null"
      ]
    },
    "volumeAttributes": {
      "additionalProperties": {
        "type": [
          "string",
          "null"
        ]
      },
      "description": "VolumeAttributes stores driver-specific properties that are passed to the CSI driver. Consult your driver's documentation for supported values.",
      "type": [
        "object",
        "null"
      ]
    }
  },
  "required": [
    "driver"
  ],
  "type": "object",
  "$schema": "http://json-schema.org/schema#"
}