{
  "description": "RoleBinding references a role, but does not contain it.  It can reference a Role in the same namespace or a ClusterRole in the global namespace. It adds who information via Subjects and namespace information by which namespace it exists in.  RoleBindings in a given namespace only have effect in that namespace. Deprecated in v1.17 in favor of rbac.authorization.k8s.io/v1 RoleBinding, and will no longer be served in v1.20.",
  "properties": {
    "apiVersion": {
      "description": "APIVersion defines the versioned schema of this representation of an object. Servers should convert recognized schemas to the latest internal value, and may reject unrecognized values. More info: https://git.k8s.io/community/contributors/devel/sig-architecture/api-conventions.md#resources",
      "type": [
        "string",
        "null"
      ],
      "enum": [
        "rbac.authorization.k8s.io/v1alpha1"
      ]
    },
    "kind": {
      "description": "Kind is a string value representing the REST resource this object represents. Servers may infer this from the endpoint the client submits requests to. Cannot be updated. In CamelCase. More info: https://git.k8s.io/community/contributors/devel/sig-architecture/api-conventions.md#types-kinds",
      "type": [
        "string",
        "null"
      ],
      "enum": [
        "RoleBinding"
      ]
    },
    "metadata": {
      "$ref": "https://raw.githubusercontent.com/yannh/kubernetes-json-schema/master/v1.17.4/_definitions.json#/definitions/io.k8s.apimachinery.pkg.apis.meta.v1.ObjectMeta",
      "description": "Standard object's metadata."
    },
    "roleRef": {
      "$ref": "https://raw.githubusercontent.com/yannh/kubernetes-json-schema/master/v1.17.4/_definitions.json#/definitions/io.k8s.api.rbac.v1alpha1.RoleRef",
      "description": "RoleRef can reference a Role in the current namespace or a ClusterRole in the global namespace. If the RoleRef cannot be resolved, the Authorizer must return an error."
    },
    "subjects": {
      "description": "Subjects holds references to the objects the role applies to.",
      "items": {
        "$ref": "https://raw.githubusercontent.com/yannh/kubernetes-json-schema/master/v1.17.4/_definitions.json#/definitions/io.k8s.api.rbac.v1alpha1.Subject"
      },
      "type": [
        "array",
        "null"
      ]
    }
  },
  "required": [
    "roleRef"
  ],
  "type": "object",
  "x-kubernetes-group-version-kind": [
    {
      "group": "rbac.authorization.k8s.io",
      "kind": "RoleBinding",
      "version": "v1alpha1"
    }
  ],
  "$schema": "http://json-schema.org/schema#"
}