{
  "description": "DeploymentStrategy describes how to replace existing pods with new ones.",
  "properties": {
    "rollingUpdate": {
      "$ref": "https://raw.githubusercontent.com/yannh/kubernetes-json-schema/master/v1.15.5/_definitions.json#/definitions/io.k8s.api.extensions.v1beta1.RollingUpdateDeployment",
      "description": "Rolling update config params. Present only if DeploymentStrategyType = RollingUpdate."
    },
    "type": {
      "description": "Type of deployment. Can be \"Recreate\" or \"RollingUpdate\". Default is RollingUpdate.",
      "type": [
        "string",
        "null"
      ]
    }
  },
  "type": "object",
  "$schema": "http://json-schema.org/schema#"
}