{
  "description": "Endpoint represents a single logical \"backend\" implementing a service.",
  "properties": {
    "addresses": {
      "description": "addresses of this endpoint. The contents of this field are interpreted according to the corresponding EndpointSlice addressType field. Consumers must handle different types of addresses in the context of their own capabilities. This must contain at least one address but no more than 100.",
      "items": {
        "type": [
          "string",
          "null"
        ]
      },
      "type": [
        "array",
        "null"
      ],
      "x-kubernetes-list-type": "set"
    },
    "conditions": {
      "$ref": "https://raw.githubusercontent.com/yannh/kubernetes-json-schema/master/v1.18.7/_definitions.json#/definitions/io.k8s.api.discovery.v1beta1.EndpointConditions",
      "description": "conditions contains information about the current status of the endpoint."
    },
    "hostname": {
      "description": "hostname of this endpoint. This field may be used by consumers of endpoints to distinguish endpoints from each other (e.g. in DNS names). Multiple endpoints which use the same hostname should be considered fungible (e.g. multiple A values in DNS). Must pass DNS Label (RFC 1123) validation.",
      "type": [
        "string",
        "null"
      ]
    },
    "targetRef": {
      "$ref": "https://raw.githubusercontent.com/yannh/kubernetes-json-schema/master/v1.18.7/_definitions.json#/definitions/io.k8s.api.core.v1.ObjectReference",
      "description": "targetRef is a reference to a Kubernetes object that represents this endpoint."
    },
    "topology": {
      "additionalProperties": {
        "type": [
          "string",
          "null"
        ]
      },
      "description": "topology contains arbitrary topology information associated with the endpoint. These key/value pairs must conform with the label format. https://kubernetes.io/docs/concepts/overview/working-with-objects/labels Topology may include a maximum of 16 key/value pairs. This includes, but is not limited to the following well known keys: * kubernetes.io/hostname: the value indicates the hostname of the node\n  where the endpoint is located. This should match the corresponding\n  node label.\n* topology.kubernetes.io/zone: the value indicates the zone where the\n  endpoint is located. This should match the corresponding node label.\n* topology.kubernetes.io/region: the value indicates the region where the\n  endpoint is located. This should match the corresponding node label.",
      "type": [
        "object",
        "null"
      ]
    }
  },
  "required": [
    "addresses"
  ],
  "type": "object",
  "$schema": "http://json-schema.org/schema#"
}