{
  "description": "SelfSubjectAccessReview checks whether or the current user can perform an action.  Not filling in a spec.namespace means \"in all namespaces\".  Self is a special case, because users should always be able to check whether they can perform an action",
  "properties": {
    "apiVersion": {
      "description": "APIVersion defines the versioned schema of this representation of an object. Servers should convert recognized schemas to the latest internal value, and may reject unrecognized values. More info: https://git.k8s.io/community/contributors/devel/sig-architecture/api-conventions.md#resources",
      "type": [
        "string",
        "null"
      ],
      "enum": [
        "authorization.k8s.io/v1beta1"
      ]
    },
    "kind": {
      "description": "Kind is a string value representing the REST resource this object represents. Servers may infer this from the endpoint the client submits requests to. Cannot be updated. In CamelCase. More info: https://git.k8s.io/community/contributors/devel/sig-architecture/api-conventions.md#types-kinds",
      "type": [
        "string",
        "null"
      ],
      "enum": [
        "SelfSubjectAccessReview"
      ]
    },
    "metadata": {
      "$ref": "https://raw.githubusercontent.com/yannh/kubernetes-json-schema/master/v1.18.16/_definitions.json#/definitions/io.k8s.apimachinery.pkg.apis.meta.v1.ObjectMeta"
    },
    "spec": {
      "$ref": "https://raw.githubusercontent.com/yannh/kubernetes-json-schema/master/v1.18.16/_definitions.json#/definitions/io.k8s.api.authorization.v1beta1.SelfSubjectAccessReviewSpec",
      "description": "Spec holds information about the request being evaluated.  user and groups must be empty"
    },
    "status": {
      "$ref": "https://raw.githubusercontent.com/yannh/kubernetes-json-schema/master/v1.18.16/_definitions.json#/definitions/io.k8s.api.authorization.v1beta1.SubjectAccessReviewStatus",
      "description": "Status is filled in by the server and indicates whether the request is allowed or not"
    }
  },
  "required": [
    "spec"
  ],
  "type": "object",
  "x-kubernetes-group-version-kind": [
    {
      "group": "authorization.k8s.io",
      "kind": "SelfSubjectAccessReview",
      "version": "v1beta1"
    }
  ],
  "$schema": "http://json-schema.org/schema#"
}