{
  "description": "AuditSinkSpec holds the spec for the audit sink",
  "properties": {
    "policy": {
      "$ref": "https://raw.githubusercontent.com/yannh/kubernetes-json-schema/master/v1.18.0/_definitions.json#/definitions/io.k8s.api.auditregistration.v1alpha1.Policy",
      "description": "Policy defines the policy for selecting which events should be sent to the webhook required"
    },
    "webhook": {
      "$ref": "https://raw.githubusercontent.com/yannh/kubernetes-json-schema/master/v1.18.0/_definitions.json#/definitions/io.k8s.api.auditregistration.v1alpha1.Webhook",
      "description": "Webhook to send events required"
    }
  },
  "required": [
    "policy",
    "webhook"
  ],
  "type": "object",
  "$schema": "http://json-schema.org/schema#"
}