{
  "description": "MetricIdentifier defines the name and optionally selector for a metric",
  "properties": {
    "name": {
      "description": "name is the name of the given metric",
      "type": [
        "string",
        "null"
      ]
    },
    "selector": {
      "$ref": "https://raw.githubusercontent.com/yannh/kubernetes-json-schema/master/v1.18.0/_definitions.json#/definitions/io.k8s.apimachinery.pkg.apis.meta.v1.LabelSelector",
      "description": "selector is the string-encoded form of a standard kubernetes label selector for the given metric When set, it is passed as an additional parameter to the metrics server for more specific metrics scoping. When unset, just the metricName will be used to gather metrics."
    }
  },
  "required": [
    "name"
  ],
  "type": "object",
  "$schema": "http://json-schema.org/schema#"
}