{
  "description": "Scale represents a scaling request for a resource.",
  "properties": {
    "apiVersion": {
      "description": "APIVersion defines the versioned schema of this representation of an object. Servers should convert recognized schemas to the latest internal value, and may reject unrecognized values. More info: https://git.k8s.io/community/contributors/devel/api-conventions.md#resources",
      "type": [
        "string",
        "null"
      ],
      "enum": [
        "apps/v1beta1"
      ]
    },
    "kind": {
      "description": "Kind is a string value representing the REST resource this object represents. Servers may infer this from the endpoint the client submits requests to. Cannot be updated. In CamelCase. More info: https://git.k8s.io/community/contributors/devel/api-conventions.md#types-kinds",
      "type": [
        "string",
        "null"
      ],
      "enum": [
        "Scale"
      ]
    },
    "metadata": {
      "$ref": "https://raw.githubusercontent.com/yannh/kubernetes-json-schema/master/v1.15.3/_definitions.json#/definitions/io.k8s.apimachinery.pkg.apis.meta.v1.ObjectMeta",
      "description": "Standard object metadata; More info: https://git.k8s.io/community/contributors/devel/api-conventions.md#metadata."
    },
    "spec": {
      "$ref": "https://raw.githubusercontent.com/yannh/kubernetes-json-schema/master/v1.15.3/_definitions.json#/definitions/io.k8s.api.apps.v1beta1.ScaleSpec",
      "description": "defines the behavior of the scale. More info: https://git.k8s.io/community/contributors/devel/api-conventions.md#spec-and-status."
    },
    "status": {
      "$ref": "https://raw.githubusercontent.com/yannh/kubernetes-json-schema/master/v1.15.3/_definitions.json#/definitions/io.k8s.api.apps.v1beta1.ScaleStatus",
      "description": "current status of the scale. More info: https://git.k8s.io/community/contributors/devel/api-conventions.md#spec-and-status. Read-only."
    }
  },
  "type": "object",
  "x-kubernetes-group-version-kind": [
    {
      "group": "apps",
      "kind": "Scale",
      "version": "v1beta1"
    }
  ],
  "$schema": "http://json-schema.org/schema#"
}