{
  "description": "IngressSpec describes the Ingress the user wishes to exist.",
  "properties": {
    "backend": {
      "$ref": "https://raw.githubusercontent.com/yannh/kubernetes-json-schema/master/v1.17.16/_definitions.json#/definitions/io.k8s.api.extensions.v1beta1.IngressBackend",
      "description": "A default backend capable of servicing requests that don't match any rule. At least one of 'backend' or 'rules' must be specified. This field is optional to allow the loadbalancer controller or defaulting logic to specify a global default."
    },
    "rules": {
      "description": "A list of host rules used to configure the Ingress. If unspecified, or no rule matches, all traffic is sent to the default backend.",
      "items": {
        "$ref": "https://raw.githubusercontent.com/yannh/kubernetes-json-schema/master/v1.17.16/_definitions.json#/definitions/io.k8s.api.extensions.v1beta1.IngressRule"
      },
      "type": [
        "array",
        "null"
      ]
    },
    "tls": {
      "description": "TLS configuration. Currently the Ingress only supports a single TLS port, 443. If multiple members of this list specify different hosts, they will be multiplexed on the same port according to the hostname specified through the SNI TLS extension, if the ingress controller fulfilling the ingress supports SNI.",
      "items": {
        "$ref": "https://raw.githubusercontent.com/yannh/kubernetes-json-schema/master/v1.17.16/_definitions.json#/definitions/io.k8s.api.extensions.v1beta1.IngressTLS"
      },
      "type": [
        "array",
        "null"
      ]
    }
  },
  "type": "object",
  "$schema": "http://json-schema.org/schema#"
}