{
  "description": "MetricSpec specifies how to scale based on a single metric (only `type` and one other matching field should be set at once).",
  "properties": {
    "external": {
      "$ref": "https://raw.githubusercontent.com/yannh/kubernetes-json-schema/master/v1.17.14/_definitions.json#/definitions/io.k8s.api.autoscaling.v2beta1.ExternalMetricSource",
      "description": "external refers to a global metric that is not associated with any Kubernetes object. It allows autoscaling based on information coming from components running outside of cluster (for example length of queue in cloud messaging service, or QPS from loadbalancer running outside of cluster)."
    },
    "object": {
      "$ref": "https://raw.githubusercontent.com/yannh/kubernetes-json-schema/master/v1.17.14/_definitions.json#/definitions/io.k8s.api.autoscaling.v2beta1.ObjectMetricSource",
      "description": "object refers to a metric describing a single kubernetes object (for example, hits-per-second on an Ingress object)."
    },
    "pods": {
      "$ref": "https://raw.githubusercontent.com/yannh/kubernetes-json-schema/master/v1.17.14/_definitions.json#/definitions/io.k8s.api.autoscaling.v2beta1.PodsMetricSource",
      "description": "pods refers to a metric describing each pod in the current scale target (for example, transactions-processed-per-second).  The values will be averaged together before being compared to the target value."
    },
    "resource": {
      "$ref": "https://raw.githubusercontent.com/yannh/kubernetes-json-schema/master/v1.17.14/_definitions.json#/definitions/io.k8s.api.autoscaling.v2beta1.ResourceMetricSource",
      "description": "resource refers to a resource metric (such as those specified in requests and limits) known to Kubernetes describing each pod in the current scale target (e.g. CPU or memory). Such metrics are built in to Kubernetes, and have special scaling options on top of those available to normal per-pod metrics using the \"pods\" source."
    },
    "type": {
      "description": "type is the type of metric source.  It should be one of \"Object\", \"Pods\" or \"Resource\", each mapping to a matching field in the object.",
      "type": [
        "string",
        "null"
      ]
    }
  },
  "required": [
    "type"
  ],
  "type": "object",
  "$schema": "http://json-schema.org/schema#"
}