{
  "description": "DEPRECATED 1.9 - This group version of NetworkPolicyPort is deprecated by networking/v1/NetworkPolicyPort.",
  "properties": {
    "port": {
      "$ref": "https://raw.githubusercontent.com/yannh/kubernetes-json-schema/master/v1.16.13/_definitions.json#/definitions/io.k8s.apimachinery.pkg.util.intstr.IntOrString",
      "description": "If specified, the port on the given protocol.  This can either be a numerical or named port on a pod.  If this field is not provided, this matches all port names and numbers. If present, only traffic on the specified protocol AND port will be matched."
    },
    "protocol": {
      "description": "Optional.  The protocol (TCP, UDP, or SCTP) which traffic must match. If not specified, this field defaults to TCP.",
      "type": [
        "string",
        "null"
      ]
    }
  },
  "type": "object",
  "$schema": "http://json-schema.org/schema#"
}